{
  "ok":true,
  "intrinsic_fields":{
    "object_id":"1",
    "type_id":"24",
    "idno":"OBJ.REC.1999.IN.1",
    "is_deaccessioned":"0",
    "extent":"0",
    "access":"0",
    "status":"0",
    "deleted":"0",
    "rank":"1",
    "acl_inherit_from_ca_collections":"0",
    "acl_inherit_from_parent":"0",
    "access_inherit_from_parent":"0",
    "view_count":"0"
  },
  "preferred_labels":[
    {
      "locale":"en_US",
      "name":"0002"
    }
  ],
  "attributes":{
    "date":[
      {
        "locale":"en_US",
        "dates_value":"May 18 2005 at 15:20:12",
        "dates_value_sort_":"2005.05181520120000000000\/2005.05181520120000000000",
        "dc_dates_types":142
      },
      {
        "locale":"en_US",
        "dates_value":"March 14 2006 at 9:39:38",
        "dates_value_sort_":"2006.03140939380000000000\/2006.03140939380000000000",
        "dc_dates_types":143
      },
      {
        "locale":"en_US",
        "dates_value":"July 21 1999",
        "dates_value_sort_":"1999.07210000000000000000\/1999.07212359590000000000",
        "dc_dates_types":144
      }
    ],
    "recording_contexts":[
      {
        "locale":"en_US",
        "recording_contexts":146
      }
    ],
    "duration":[
      {
        "locale":"en_US",
        "duration":"1:14:30"
      }
    ],
    "summary":[
      {
        "locale":"fr_BE",
        "summary":"Interview d'une m\u00e8re par son fils. Elle a 73 ans, lui 35 ans. O\u00f9 celui-ci r\u00e9alise que sa grand-m\u00e8re maternelle \u00e9tait n\u00e9erlandophone. Quelles que soient les questions, entre hier et aujourd'hui, le premier l'emporte; d'o\u00f9 un l\u00e9ger sentiment de nostalgie.  Si les souvenirs sont pr\u00e9cis (description d'avant-guerre) le pr\u00e9sent se brouille dans un discours plus convenu."
      }
    ],
    "recording_location":[
      {
        "locale":"fr_BE",
        "recording_location":"cuisine de l'interview\u00e9e"
      }
    ],
    "lcsh_language":[
      {
        "locale":"en_US",
        "lcsh_language":"French [info:lc\/vocabulary\/languages\/fre]"
      }
    ]
  },
  "related":{
    "ca_collections":[
      {
        "item_type_id":"115",->album
        "collection_id":"1",
        "type_id":"103",->is main file in
        "idno":"COL.ALB.1",
        "idno_sort":"                 COL.                 ALB.                   1",
        "relation_id":"1",
        "name":"0002",
        "locale_id":"1",
        "row_id":"1",
        "rank":"1",
        "_key":"relation_id",
        "direction":"ltor",
        "relationship_typename":"is main file in",
        "relationship_type_code":"mainfile",
        "label":"0002"
      },
      {
        "item_type_id":"114",->projet
        "collection_id":"32",
        "type_id":"102",->is part of
        "idno":"COL.PRO.1",
        "idno_sort":"                 COL.                 PRO.                   1",
        "relation_id":"2",
        "name":"T\u00e9moignages",
        "locale_id":"2",
        "row_id":"1",
        "rank":"2",
        "_key":"relation_id",
        "direction":"ltor",
        "relationship_typename":"is part of",
        "relationship_type_code":"part",
        "label":"T\u00e9moignages"
      },
      {
        "item_type_id":"115",
        "collection_id":"2",
        "type_id":"102",
        "idno":"COL.ALB.2",
        "idno_sort":"                 COL.                 ALB.                   2",
        "relation_id":"3",
        "name":"0003",
        "locale_id":"1",
        "row_id":"1",
        "rank":"3",
        "_key":"relation_id",
        "direction":"ltor",
        "relationship_typename":"is part of",
        "relationship_type_code":"part",
        "label":"0003"
      }
    ]
  }
}
